{
    "eff_vs_$TRKTAG_pt" : {
        "type" : "TEfficiency",
        "xAxis" : { "title" : "$TRKTYPE p_{T} [GeV]", "nBins" : "25", "low" : "0.0", "high" : "50.0" },
        "yAxis" : { "title" : "Efficiency" }
    },
    "eff_vs_$TRKTAG_eta" : {
        "type" : "TEfficiency",
        "xAxis" : { "title" : "$TRKTYPE #eta", "nBins" : "20", "low" : "-$ETAMAX", "high" : "$ETAMAX" },
        "yAxis" : { "title" : "Efficiency" }
    },
    "eff_vs_$TRKTAG_phi" : {
        "type" : "TEfficiency",
        "xAxis" : { "title" : "$TRKTYPE #phi", "nBins" : "25", "low" : "-$PI", "high" : "$PI" },
        "yAxis" : { "title" : "Efficiency" }
    },
    "eff_vs_$TRKTAG_d0" : {
        "type" : "TEfficiency",
        "xAxis" : { "title" : "$TRKTYPE d_{0} [mm]", "nBins" : "80", "low" : "-10.0", "high" : "10.0" },
        "yAxis" : { "title" : "Efficiency" }
    },
    "eff_vs_$TRKTAG_z0" : {
        "type" : "TEfficiency",
        "xAxis" : { "title" : "$TRKTYPE z_{0} [mm]", "nBins" : "100", "low" : "-$Z0MAX", "high" : "$Z0MAX" },
        "yAxis" : { "title" : "Efficiency" }
    },
    "eff_vs_$TRKTAG_prodR" : {
        "type" : "TEfficiency",
        "xAxis" : { "title" : "$TRKTYPE production vertex R [mm]", "nBins" : "100", "low" : "0", "high" : "50.0" },
        "yAxis" : { "title" : "Efficiency" }
    },
    "eff_vs_$TRKTAG_prodZ" : {
        "type" : "TEfficiency",
        "xAxis" : { "title" : "$TRKTYPE production vertex Z [mm]", "nBins" : "100", "low" : "-350.0", "high" : "350.0" },
        "yAxis" : { "title" : "Efficiency" }
    },
    "eff_vs_truthMu" : {
        "type" : "TEfficiency",
        "xAxis" : { "title" : "Truth <#mu>", "nBins" : "100", "low" : "0", "high" : "100.0" },
        "yAxis" : { "title" : "Efficiency" }
    },
    "eff_vs_actualMu" : {
        "type" : "TEfficiency",
        "xAxis" : { "title" : "Actual <#mu>", "nBins" : "100", "low" : "0", "high" : "100.0" },
        "yAxis" : { "title" : "Efficiency" }
    },
    "eff_vs_$TRKTAG_eta_vs_pt" : {
        "type" : "TEfficiency",
        "xAxis" : { "title" : "$TRKTYPE p_{T} [GeV]", "nBins" : "25", "low" : "0.0", "high" : "50.0" },
        "yAxis" : { "title" : "$TRKTYPE #eta", "nBins" : "20", "low" : "-$ETAMAX", "high" : "$ETAMAX" },
        "zAxis" : { "title" : "Efficiency" }
    },
    "eff_vs_$TRKTAG_eta_vs_phi" : {
        "type" : "TEfficiency",
        "xAxis" : { "title" : "$TRKTYPE #phi", "nBins" : "25", "low" : "-$PI", "high" : "$PI" },
        "yAxis" : { "title" : "$TRKTYPE #eta", "nBins" : "20", "low" : "-$ETAMAX", "high" : "$ETAMAX" },
        "zAxis" : { "title" : "Efficiency" }
    },
    "eff_vs_$TRKTAG_z0_vs_d0" : {
        "type" : "TEfficiency",
        "xAxis" : { "title" : "$TRKTYPE d_{0} [mm]", "nBins" : "80", "low" : "-10.0", "high" : "10.0" },
        "yAxis" : { "title" : "$TRKTYPE z_{0} [mm]", "nBins" : "100", "low" : "-$Z0MAX", "high" : "$Z0MAX" },
        "zAxis" : { "title" : "Efficiency" }
    },
    "eff_vs_$TRKTAG_z0sin_vs_d0" : {
        "type" : "TEfficiency",
        "xAxis" : { "title" : "$TRKTYPE d_{0} [mm]", "nBins" : "80", "low" : "-10.0", "high" : "10.0" },
        "yAxis" : { "title" : "$TRKTYPE z_{0}sin(#theta) [mm]", "nBins" : "100", "low" : "-$Z0MAX", "high" : "$Z0MAX" },
        "zAxis" : { "title" : "Efficiency" }
    }
}